\relax 
\providecommand\hyper@newdestlabel[2]{}
\providecommand\HyperFirstAtBeginDocument{\AtBeginDocument}
\HyperFirstAtBeginDocument{\ifx\hyper@anchor\@undefined
\global\let\oldcontentsline\contentsline
\gdef\contentsline#1#2#3#4{\oldcontentsline{#1}{#2}{#3}}
\global\let\oldnewlabel\newlabel
\gdef\newlabel#1#2{\newlabelxx{#1}#2}
\gdef\newlabelxx#1#2#3#4#5#6{\oldnewlabel{#1}{{#2}{#3}}}
\AtEndDocument{\ifx\hyper@anchor\@undefined
\let\contentsline\oldcontentsline
\let\newlabel\oldnewlabel
\fi}
\fi}
\global\let\hyper@last\relax 
\gdef\HyperFirstAtBeginDocument#1{#1}
\providecommand\HyField@AuxAddToFields[1]{}
\providecommand\HyField@AuxAddToCoFields[2]{}
\@writefile{toc}{\contentsline {section}{\numberline {1}The set-up}{1}{section.1}\protected@file@percent }
\@writefile{toc}{\contentsline {section}{\numberline {2}The Chow group}{1}{section.2}\protected@file@percent }
\@writefile{loe}{\contentsline {prop}{\ifthmt@listswap Proposition\nobreakspace  {}2.1\else \numberline {2.1}Proposition\fi \thmtformatoptarg {Chow group of $\cc@accent {"707E}{X}$}}{1}{prop.2.1}\protected@file@percent }
\@writefile{toc}{\contentsline {section}{\numberline {3}The ring structure}{1}{section.3}\protected@file@percent }
\@writefile{loe}{\contentsline {thm}{\ifthmt@listswap Theorem\nobreakspace  {}3.1\else \numberline {3.1}Theorem\fi \thmtformatoptarg {excess intersection formula}}{2}{thm.3.1}\protected@file@percent }
\@writefile{loe}{\contentsline {prop}{\ifthmt@listswap Proposition\nobreakspace  {}3.2\else \numberline {3.2}Proposition\fi \thmtformatoptarg {push forward and intersection products}}{2}{prop.3.2}\protected@file@percent }
\gdef \@abspage@last{2}
