\contentsline {section}{\numberline {1}The set-up}{1}{section.1}%
\contentsline {section}{\numberline {2}The Chow group}{1}{section.2}%
\contentsline {section}{\numberline {3}The ring structure}{1}{section.3}%
